<?xml version="1.0" encoding="utf-8"?>
<!-- Generator: Adobe Illustrator 21.1.0, SVG Export Plug-In . SVG Version: 6.00 Build 0)  -->
<svg version="1.1" id="Warstwa_1" xmlns="http://www.w3.org/2000/svg" xmlns:xlink="http://www.w3.org/1999/xlink" x="0px" y="0px"
	 viewBox="0 0 50 50" style="enable-background:new 0 0 50 50;" xml:space="preserve">
<style type="text/css">
	.st0{fill:#FFFFFF;}
</style>
<g>
	<path class="st0" d="M43,4.5h-4.6V1.6c0-0.6-0.5-1.1-1.1-1.1c-0.6,0-1.1,0.5-1.1,1.1v2.9H13.8V1.6c0-0.6-0.5-1.1-1.1-1.1
		S11.6,1,11.6,1.6v2.9H7c-2.5,0-4.5,2-4.5,4.5v36c0,2.5,2,4.5,4.5,4.5h36c2.5,0,4.5-2,4.5-4.5V9C47.5,6.5,45.5,4.5,43,4.5z M7,6.7
		h4.6v3.3c0,0.6,0.5,1.1,1.1,1.1s1.1-0.5,1.1-1.1V6.7h22.5v3.3c0,0.6,0.5,1.1,1.1,1.1c0.6,0,1.1-0.5,1.1-1.1V6.7H43
		c1.3,0,2.3,1,2.3,2.3v5.7H4.7V9C4.7,7.7,5.7,6.7,7,6.7z M43,47.3H7c-1.3,0-2.3-1-2.3-2.3V16.8h40.6V45C45.3,46.3,44.3,47.3,43,47.3
		z"/>
	<path class="st0" d="M33.2,22.1H26h-0.9h-7.1H17H8.9v8.7v0.9v8.7H17h0.9h7.1H26h8.1v-8.7h8.1v-9.6h-8.1H33.2z M26,23h7.1v7.7H26V23
		z M17.9,23h7.1v7.7h-7.1V23z M9.9,23H17v7.7H9.9V23z M17,39.4H9.9v-7.7H17V39.4z M25.1,39.4h-7.1v-7.7h7.1V39.4z M33.2,39.4H26
		v-7.7h7.1V39.4z M41.2,23v7.7h-7.1V23H41.2z"/>
</g>
</svg>
