<?xml version="1.0" encoding="utf-8"?>
<!-- Generator: Adobe Illustrator 21.1.0, SVG Export Plug-In . SVG Version: 6.00 Build 0)  -->
<svg version="1.1" id="Warstwa_1" xmlns="http://www.w3.org/2000/svg" xmlns:xlink="http://www.w3.org/1999/xlink" x="0px" y="0px"
	 viewBox="0 0 50 50" style="enable-background:new 0 0 50 50;" xml:space="preserve">
<style type="text/css">
	.st0{fill:#FFFFFF;}
</style>
<g>
	<path class="st0" d="M33.4,25c2.7-2.7,2.7-7,0-9.7c-1.3-1.3-3-2-4.8-2s-3.6,0.7-4.8,2l-7.8,7.8c-0.4,0.4-0.4,1.1,0,1.5
		c0.4,0.4,1.1,0.4,1.5,0l7.8-7.8c0.9-0.9,2.1-1.4,3.3-1.4s2.4,0.5,3.3,1.4c1.8,1.8,1.8,4.8,0,6.7L21.4,33.9c-1.1,1.1-2.9,1.1-4,0
		c-1.1-1.1-1.1-2.9,0-4l9.9-9.9c0.4-0.4,1-0.4,1.3,0c0.4,0.4,0.4,1,0,1.3l-7.3,7.3c-0.4,0.4-0.4,1.1,0,1.5c0.4,0.4,1.1,0.4,1.5,0
		l7.3-7.3c1.2-1.2,1.2-3.2,0-4.4c-0.6-0.6-1.4-0.9-2.2-0.9s-1.6,0.3-2.2,0.9l-9.9,9.9l0,0c0,0,0,0,0,0l0,0c0,0,0,0,0,0l-0.1,0.1l0,0
		c-1.8,1.9-1.8,5,0.1,6.9c1,1,2.2,1.5,3.5,1.5c1.2,0,2.5-0.5,3.4-1.4l0,0l0.1-0.1c0,0,0,0,0,0l0,0c0,0,0,0,0,0h0L33.4,25z"/>
	<path class="st0" d="M44.2,1H5.8C5,1,4.3,1.7,4.3,2.5v45C4.3,48.3,5,49,5.8,49h30c0.4,0,0.7-0.1,1-0.4l8.3-7.5
		c0.3-0.3,0.5-0.7,0.5-1.1V2.5C45.7,1.7,45,1,44.2,1z M7.3,4h35.3v34.5h-7.5V46H7.3V4z"/>
</g>
</svg>
