<?xml version="1.0" encoding="utf-8"?>
<!-- Generator: Adobe Illustrator 21.1.0, SVG Export Plug-In . SVG Version: 6.00 Build 0)  -->
<svg version="1.1" id="Warstwa_1" xmlns="http://www.w3.org/2000/svg" xmlns:xlink="http://www.w3.org/1999/xlink" x="0px" y="0px"
	 viewBox="0 0 50 50" style="enable-background:new 0 0 50 50;" xml:space="preserve">
<style type="text/css">
	.st0{fill:#FFFFFF;}
</style>
<g>
	<path class="st0" d="M25,2.5c-4.4,0-8.7,1.3-12.4,3.7c-0.5,0.3-0.6,1-0.3,1.5c0.3,0.5,1,0.6,1.5,0.3C17.2,5.8,21,4.7,25,4.7
		c11.2,0,20.3,9.1,20.3,20.3c0,11.2-9.1,20.3-20.3,20.3C13.8,45.3,4.7,36.2,4.7,25c0-3.9,1.1-7.7,3.2-11c0.3-0.5,0.2-1.2-0.3-1.5
		c-0.5-0.3-1.2-0.2-1.5,0.3C3.7,16.5,2.5,20.7,2.5,25c0,12.4,10.1,22.5,22.5,22.5c12.4,0,22.5-10.1,22.5-22.5
		C47.5,12.6,37.4,2.5,25,2.5z"/>
	<path class="st0" d="M15.4,17.7h19.2c0.7,0,1.3-0.6,1.3-1.3s-0.6-1.3-1.3-1.3H15.4c-0.7,0-1.3,0.6-1.3,1.3S14.7,17.7,15.4,17.7z"/>
	<path class="st0" d="M15.4,23.5h19.2c0.7,0,1.3-0.6,1.3-1.3S35.3,21,34.6,21H15.4c-0.7,0-1.3,0.6-1.3,1.3S14.7,23.5,15.4,23.5z"/>
	<path class="st0" d="M15.4,29.4h19.2c0.7,0,1.3-0.6,1.3-1.3s-0.6-1.3-1.3-1.3H15.4c-0.7,0-1.3,0.6-1.3,1.3S14.7,29.4,15.4,29.4z"/>
	<path class="st0" d="M15.4,35.2h19.2c0.7,0,1.3-0.6,1.3-1.3s-0.6-1.3-1.3-1.3H15.4c-0.7,0-1.3,0.6-1.3,1.3S14.7,35.2,15.4,35.2z"/>
</g>
</svg>
