<?xml version="1.0" encoding="utf-8"?>
<!-- Generator: Adobe Illustrator 21.1.0, SVG Export Plug-In . SVG Version: 6.00 Build 0)  -->
<svg version="1.1" id="Warstwa_1" xmlns="http://www.w3.org/2000/svg" xmlns:xlink="http://www.w3.org/1999/xlink" x="0px" y="0px"
	 viewBox="0 0 50 50" style="enable-background:new 0 0 50 50;" xml:space="preserve">
<style type="text/css">
	.st0{fill:#FFFFFF;}
</style>
<g>
	<path class="st0" d="M25,2.5c-4.4,0-8.7,1.3-12.4,3.7c-0.5,0.3-0.6,1-0.3,1.5c0.3,0.5,1,0.6,1.5,0.3C17.2,5.8,21,4.7,25,4.7
		c11.2,0,20.3,9.1,20.3,20.3c0,11.2-9.1,20.3-20.3,20.3C13.8,45.3,4.7,36.2,4.7,25c0-3.9,1.1-7.7,3.2-11c0.3-0.5,0.2-1.2-0.3-1.5
		c-0.5-0.3-1.2-0.2-1.5,0.3C3.7,16.5,2.5,20.7,2.5,25c0,12.4,10.1,22.5,22.5,22.5c12.4,0,22.5-10.1,22.5-22.5
		C47.5,12.6,37.4,2.5,25,2.5z"/>
	<path class="st0" d="M31.8,39.4l1.9-20.9H16.3l1.9,20.9H31.8z M24.4,37.2h-1.3L22,20.7h2.4V37.2z M25.6,20.7H28l-1.1,16.5h-1.3
		V20.7z M29.8,37.2h-1.6l1.1-16.5h2L29.8,37.2z M20.7,20.7l1.1,16.5h-1.6l-1.5-16.5H20.7z"/>
	<path class="st0" d="M35.2,17.2c0.2-0.3,0.2-0.6,0-0.9L32.9,12c-0.2-0.3-0.5-0.5-0.8-0.5H17.9c-0.3,0-0.6,0.2-0.8,0.5l-2.4,4.3
		c-0.2,0.3-0.1,0.6,0,0.9c0.2,0.3,0.5,0.4,0.8,0.4h18.9C34.8,17.7,35.1,17.5,35.2,17.2z M17.1,15.8l1.4-2.5h13.1l1.4,2.5H17.1z"/>
</g>
</svg>
