<?xml version="1.0" encoding="utf-8"?>
<!-- Generator: Adobe Illustrator 21.1.0, SVG Export Plug-In . SVG Version: 6.00 Build 0)  -->
<svg version="1.1" id="Warstwa_1" xmlns="http://www.w3.org/2000/svg" xmlns:xlink="http://www.w3.org/1999/xlink" x="0px" y="0px"
	 viewBox="0 0 50 50" style="enable-background:new 0 0 50 50;" xml:space="preserve">
<style type="text/css">
	.st0{fill:#FFFFFF;}
</style>
<g>
	<path class="st0" d="M23.2,44.3c-11.6,0-21-9.4-21-21c0-11.6,9.4-21,21-21c11.6,0,21,9.4,21,21c0,0.4,0.3,0.7,0.7,0.7
		c0.4,0,0.7-0.3,0.7-0.7c0-12.4-10.1-22.5-22.5-22.5S0.7,10.8,0.7,23.2s10.1,22.5,22.5,22.5c0.4,0,0.7-0.3,0.7-0.7
		C24,44.6,23.6,44.3,23.2,44.3z"/>
	<path class="st0" d="M36.5,23.7c-7,0-12.8,5.7-12.8,12.8s5.7,12.8,12.8,12.8s12.8-5.7,12.8-12.8S43.5,23.7,36.5,23.7z M36.5,48.2
		c-6.4,0-11.7-5.2-11.7-11.7S30,24.8,36.5,24.8S48.2,30,48.2,36.5S42.9,48.2,36.5,48.2z"/>
	<path class="st0" d="M11.6,12.8c-0.4,0.4-0.4,1.1,0.1,1.5l10.9,9.8c0,0,0,0,0.1,0c0,0,0,0,0.1,0.1c0,0,0.1,0,0.1,0.1c0,0,0,0,0.1,0
		c0,0,0.1,0,0.1,0c0,0,0,0,0.1,0c0.1,0,0.1,0,0.2,0c0,0,0,0,0,0c0,0,0,0,0,0c0.1,0,0.1,0,0.2,0c0,0,0,0,0.1,0c0,0,0.1,0,0.1,0
		c0,0,0,0,0.1,0c0,0,0.1,0,0.1-0.1c0,0,0,0,0.1-0.1c0,0,0,0,0.1-0.1l7.9-7.6c0.4-0.4,0.4-1.1,0-1.5c-0.4-0.4-1.1-0.4-1.5,0l-7.1,6.9
		l-10.2-9.2C12.7,12.3,12,12.3,11.6,12.8z"/>
	<path class="st0" d="M23.9,7.7V4.8c0-0.3-0.2-0.5-0.5-0.5c-0.3,0-0.5,0.2-0.5,0.5v2.9c0,0.3,0.2,0.5,0.5,0.5
		C23.6,8.2,23.9,8,23.9,7.7z"/>
	<path class="st0" d="M4.8,22.8c-0.3,0-0.5,0.2-0.5,0.5s0.2,0.5,0.5,0.5h2.9c0.3,0,0.5-0.2,0.5-0.5S8,22.8,7.7,22.8H4.8z"/>
	<path class="st0" d="M43.1,33.9l-5.8-4c0,0,0,0-0.1,0c0,0,0,0-0.1,0c0,0,0,0,0,0c0,0-0.1,0-0.1,0c0,0-0.1,0-0.1,0c0,0-0.1,0-0.1,0
		c0,0-0.1,0-0.1,0c0,0-0.1,0-0.1,0c0,0-0.1,0-0.1,0c0,0-0.1,0-0.1,0c0,0-0.1,0-0.1,0c0,0-0.1,0-0.1,0c0,0-0.1,0-0.1,0
		c0,0-0.1,0-0.1,0c0,0-0.1,0-0.1,0c0,0-0.1,0-0.1,0c0,0-0.1,0-0.1,0c0,0,0,0,0,0c0,0,0,0-0.1,0c0,0-0.1,0-0.1,0l-5.8,4
		c-0.7,0.5-0.9,1.4-0.4,2.1c0.5,0.7,1.4,0.9,2.1,0.4L35,34V42c0,0.8,0.7,1.5,1.5,1.5S38,42.9,38,42V34l3.5,2.4
		c0.7,0.5,1.6,0.3,2.1-0.4C44,35.3,43.8,34.3,43.1,33.9z"/>
</g>
</svg>
