<?xml version="1.0" encoding="utf-8"?>
<!-- Generator: Adobe Illustrator 21.1.0, SVG Export Plug-In . SVG Version: 6.00 Build 0)  -->
<svg version="1.1" id="Warstwa_1" xmlns="http://www.w3.org/2000/svg" xmlns:xlink="http://www.w3.org/1999/xlink" x="0px" y="0px"
	 viewBox="0 0 50 50" style="enable-background:new 0 0 50 50;" xml:space="preserve">
<style type="text/css">
	.st0{fill:#666666;}
	.st1{fill:#FFFFFF;}
</style>
<g>
	<circle class="st0" cx="25" cy="25" r="22.5"/>
	<path class="st1" d="M25,43.9C14.6,43.9,6.1,35.4,6.1,25c0-3.6,1-7.2,3-10.2c0.3-0.4,0.8-0.5,1.3-0.3c0.4,0.3,0.5,0.8,0.3,1.3
		C8.9,18.5,8,21.7,8,25c0,9.4,7.6,17,17,17c9.4,0,17-7.6,17-17c0-9.4-7.6-17-17-17c-3.3,0-6.6,1-9.3,2.8c-0.4,0.3-1,0.2-1.3-0.3
		c-0.3-0.4-0.2-1,0.3-1.3c3.1-2,6.7-3.1,10.3-3.1c10.4,0,18.9,8.5,18.9,18.9C43.9,35.4,35.4,43.9,25,43.9z"/>
	<path class="st1" d="M30.6,31.7H19.4c-0.6,0-1.1-0.5-1.1-1.1V19.4c0-0.6,0.5-1.1,1.1-1.1h11.2c0.6,0,1.1,0.5,1.1,1.1v11.2
		C31.7,31.2,31.2,31.7,30.6,31.7z"/>
</g>
</svg>
