<?xml version="1.0" encoding="utf-8"?>
<!-- Generator: Adobe Illustrator 21.1.0, SVG Export Plug-In . SVG Version: 6.00 Build 0)  -->
<svg version="1.1" id="Warstwa_1" xmlns="http://www.w3.org/2000/svg" xmlns:xlink="http://www.w3.org/1999/xlink" x="0px" y="0px"
	 viewBox="0 0 50 50" style="enable-background:new 0 0 50 50;" xml:space="preserve">
<style type="text/css">
	.st0{fill:#FFFFFF;}
</style>
<g>
	<path class="st0" d="M25,2.5c-4.4,0-8.7,1.3-12.4,3.7c-0.5,0.3-0.6,1-0.3,1.5c0.3,0.5,1,0.6,1.5,0.3C17.2,5.8,21,4.7,25,4.7
		c11.2,0,20.3,9.1,20.3,20.3c0,11.2-9.1,20.3-20.3,20.3C13.8,45.3,4.7,36.2,4.7,25c0-3.9,1.1-7.7,3.2-11c0.3-0.5,0.2-1.2-0.3-1.5
		c-0.5-0.3-1.2-0.2-1.5,0.3C3.7,16.5,2.5,20.7,2.5,25c0,12.4,10.1,22.5,22.5,22.5c12.4,0,22.5-10.1,22.5-22.5
		C47.5,12.6,37.4,2.5,25,2.5z"/>
	<path class="st0" d="M37,20.1v-7.3c0-0.7-0.6-1.3-1.3-1.3h-21c-0.7,0-1.3,0.6-1.3,1.3v7.3c0,0.7,0.6,1.3,1.3,1.3h21
		C36.4,21.4,37,20.8,37,20.1z M34.4,18.8H15.9v-4.7h18.5V18.8z"/>
	<path class="st0" d="M13.4,37.2c0,0.7,0.6,1.3,1.3,1.3h21c0.7,0,1.3-0.6,1.3-1.3v-7.3c0-0.7-0.6-1.3-1.3-1.3h-21
		c-0.7,0-1.3,0.6-1.3,1.3V37.2z M15.9,31.2h18.5v4.7H15.9V31.2z"/>
	<path class="st0" d="M9.4,26.3h2.2c0.7,0,1.3-0.6,1.3-1.3s-0.6-1.3-1.3-1.3H9.4c-0.7,0-1.3,0.6-1.3,1.3S8.7,26.3,9.4,26.3z"/>
	<path class="st0" d="M28.3,23.7c-0.7,0-1.3,0.6-1.3,1.3s0.6,1.3,1.3,1.3h3.6c0.7,0,1.3-0.6,1.3-1.3s-0.6-1.3-1.3-1.3H28.3z"/>
	<path class="st0" d="M18.1,23.7c-0.7,0-1.3,0.6-1.3,1.3s0.6,1.3,1.3,1.3h3.6c0.7,0,1.3-0.6,1.3-1.3s-0.6-1.3-1.3-1.3H18.1z"/>
	<path class="st0" d="M40.6,26.3c0.7,0,1.3-0.6,1.3-1.3s-0.6-1.3-1.3-1.3h-2.2c-0.7,0-1.3,0.6-1.3,1.3s0.6,1.3,1.3,1.3H40.6z"/>
</g>
</svg>
