{
    "/js/app.js": "/js/app.js",
    "/css/app.css": "/css/app.css",
    "/css/main.css": "/css/main.css",
    "/css/frontend.css": "/css/frontend.css",
    "/js/socket.js": "/js/socket.js",
    "/js/front.js": "/js/front.js"
}