<?xml version="1.0" encoding="utf-8"?>
<!-- Generator: Adobe Illustrator 21.1.0, SVG Export Plug-In . SVG Version: 6.00 Build 0)  -->
<svg version="1.1" id="Warstwa_1" xmlns="http://www.w3.org/2000/svg" xmlns:xlink="http://www.w3.org/1999/xlink" x="0px" y="0px"
	 viewBox="0 0 50 50" style="enable-background:new 0 0 50 50;" xml:space="preserve">
<style type="text/css">
	.st0{fill:#FFFFFF;}
</style>
<path class="st0" d="M43,27.1l4.5-14.8l-6,1.4C35.8,4.7,24,1.2,14.2,6.1C3.8,11.3-0.5,24,4.7,34.4c2.5,5.1,6.8,8.8,12.2,10.6
	c2.2,0.7,4.5,1.1,6.7,1.1c3.2,0,6.4-0.7,9.4-2.2c0.8-0.4,1.1-1.4,0.7-2.2c-0.4-0.8-1.4-1.1-2.2-0.7c-4.3,2.1-9.1,2.4-13.6,0.9
	c-4.5-1.5-8.2-4.7-10.3-9c-4.4-8.8-0.8-19.5,8-23.9C23.5,5.1,33,7.6,38,14.5l-5.6,1.3L43,27.1z"/>
</svg>
