<?xml version="1.0" encoding="utf-8"?>
<!-- Generator: Adobe Illustrator 21.1.0, SVG Export Plug-In . SVG Version: 6.00 Build 0)  -->
<svg version="1.1" id="Warstwa_1" xmlns="http://www.w3.org/2000/svg" xmlns:xlink="http://www.w3.org/1999/xlink" x="0px" y="0px"
	 viewBox="0 0 50 50" style="enable-background:new 0 0 50 50;" xml:space="preserve">
<style type="text/css">
	.st0{fill:#FFFFFF;}
</style>
<path class="st0" d="M25,47.5C12.6,47.5,2.5,37.4,2.5,25c0-4.3,1.2-8.5,3.6-12.2c0.3-0.5,1-0.7,1.5-0.3c0.5,0.3,0.7,1,0.3,1.5
	c-2.1,3.3-3.2,7.1-3.2,11c0,11.2,9.1,20.3,20.3,20.3c11.2,0,20.3-9.1,20.3-20.3S36.2,4.7,25,4.7c-4,0-7.8,1.2-11.2,3.3
	c-0.5,0.3-1.2,0.2-1.5-0.3c-0.3-0.5-0.2-1.2,0.3-1.5c3.7-2.4,7.9-3.7,12.4-3.7c12.4,0,22.5,10.1,22.5,22.5
	C47.5,37.4,37.4,47.5,25,47.5z"/>
<path class="st0" d="M18.5,39c-1.5,0-3-0.6-4.2-1.7C12,35,12,31.4,14.2,29.1l0,0l0.1-0.1c0,0,0,0,0,0l0,0c0,0,0,0,0,0l0,0l11.8-11.8
	c0.7-0.7,1.6-1.1,2.6-1.1c1,0,1.9,0.4,2.6,1.1c0.7,0.7,1.1,1.6,1.1,2.6c0,1-0.4,1.9-1.1,2.6l-8.7,8.7c-0.5,0.5-1.3,0.5-1.8,0
	c-0.5-0.5-0.5-1.3,0-1.8l8.7-8.7c0.4-0.4,0.4-1.2,0-1.6c-0.4-0.4-1.2-0.4-1.6,0L16,30.8c-1.3,1.3-1.3,3.4,0,4.8
	c1.3,1.3,3.4,1.3,4.8,0l12.4-12.4c2.2-2.2,2.2-5.8,0-8c-1.1-1.1-2.5-1.6-4-1.6c-1.5,0-2.9,0.6-4,1.6L16,24.5c-0.5,0.5-1.3,0.5-1.8,0
	c-0.5-0.5-0.5-1.3,0-1.8l9.3-9.3c1.5-1.5,3.6-2.4,5.8-2.4s4.2,0.8,5.8,2.4c3.2,3.2,3.2,8.4,0,11.6L22.7,37.3h0c0,0,0,0,0,0l0,0
	c0,0,0,0,0,0l-0.1,0.1l0,0C21.4,38.5,19.9,39,18.5,39z"/>
</svg>
