<?xml version="1.0" encoding="utf-8"?>
<!-- Generator: Adobe Illustrator 21.1.0, SVG Export Plug-In . SVG Version: 6.00 Build 0)  -->
<svg version="1.1" id="Warstwa_1" xmlns="http://www.w3.org/2000/svg" xmlns:xlink="http://www.w3.org/1999/xlink" x="0px" y="0px"
	 viewBox="0 0 50 50" style="enable-background:new 0 0 50 50;" xml:space="preserve">
<style type="text/css">
	.st0{fill:#FFFFFF;}
</style>
<g>
	<path class="st0" d="M28,42.7c-1.7,0.4-3.5,0.7-5.3,0.7c-11.4,0-20.6-9.2-20.6-20.6c0-11.4,9.2-20.6,20.6-20.6s20.6,9.2,20.6,20.6
		c0,1.8-0.2,3.6-0.7,5.4c-0.1,0.4,0.1,0.8,0.5,0.9c0.4,0.1,0.8-0.1,0.9-0.5c0.5-1.9,0.8-3.8,0.8-5.7c0-12.1-9.9-22-22-22
		s-22,9.9-22,22s9.9,22,22,22c1.9,0,3.8-0.2,5.6-0.7c0.4-0.1,0.6-0.5,0.5-0.9C28.8,42.8,28.4,42.6,28,42.7z"/>
	<path class="st0" d="M39.9,30.6c-5.2,0-9.3,4.2-9.3,9.3s4.2,9.3,9.3,9.3s9.3-4.2,9.3-9.3S45.1,30.6,39.9,30.6z M39.9,48.2
		c-4.6,0-8.3-3.7-8.3-8.3c0-4.6,3.7-8.3,8.3-8.3c4.6,0,8.3,3.7,8.3,8.3C48.2,44.5,44.5,48.2,39.9,48.2z"/>
	<path class="st0" d="M23.4,7.5V4.7c0-0.3-0.2-0.5-0.5-0.5c-0.3,0-0.5,0.2-0.5,0.5v2.9c0,0.3,0.2,0.5,0.5,0.5
		C23.2,8.1,23.4,7.8,23.4,7.5z"/>
	<path class="st0" d="M4.7,22.3c-0.3,0-0.5,0.2-0.5,0.5c0,0.3,0.2,0.5,0.5,0.5h2.9c0.3,0,0.5-0.2,0.5-0.5c0-0.3-0.2-0.5-0.5-0.5H4.7
		z"/>
	<path class="st0" d="M22.3,38.2v2.9c0,0.3,0.2,0.5,0.5,0.5c0.3,0,0.5-0.2,0.5-0.5v-2.9c0-0.3-0.2-0.5-0.5-0.5
		C22.6,37.7,22.3,37.9,22.3,38.2z"/>
	<path class="st0" d="M38.2,22.3c-0.3,0-0.5,0.2-0.5,0.5c0,0.3,0.2,0.5,0.5,0.5h2.9c0.3,0,0.5-0.2,0.5-0.5c0-0.3-0.2-0.5-0.5-0.5
		H38.2z"/>
	<path class="st0" d="M34.6,22.9c0-0.6-0.5-1.1-1.1-1.1H23.3l-10.4-9.4c-0.4-0.4-1.1-0.4-1.5,0.1C11,13,11,13.6,11.4,14l10.7,9.6
		c0,0,0,0,0.1,0c0,0,0.1,0,0.1,0.1c0,0,0.1,0,0.1,0.1c0,0,0.1,0,0.1,0c0,0,0.1,0,0.1,0c0,0,0,0,0.1,0c0.1,0,0.1,0,0.2,0c0,0,0,0,0,0
		s0,0,0,0h10.7C34.2,23.9,34.6,23.5,34.6,22.9z"/>
	<path class="st0" d="M43.9,38.9h-2.9v-2.9c0-0.6-0.5-1.1-1.1-1.1c-0.6,0-1.1,0.5-1.1,1.1v2.9h-2.9c-0.6,0-1.1,0.5-1.1,1.1
		c0,0.6,0.5,1.1,1.1,1.1h2.9v2.9c0,0.6,0.5,1.1,1.1,1.1c0.6,0,1.1-0.5,1.1-1.1v-2.9h2.9c0.6,0,1.1-0.5,1.1-1.1
		C45,39.4,44.5,38.9,43.9,38.9z"/>
</g>
</svg>
