<?xml version="1.0" encoding="utf-8"?>
<!-- Generator: Adobe Illustrator 21.1.0, SVG Export Plug-In . SVG Version: 6.00 Build 0)  -->
<svg version="1.1" id="Warstwa_1" xmlns="http://www.w3.org/2000/svg" xmlns:xlink="http://www.w3.org/1999/xlink" x="0px" y="0px"
	 viewBox="0 0 50 50" style="enable-background:new 0 0 50 50;" xml:space="preserve">
<style type="text/css">
	.st0{fill:#FFFFFF;}
</style>
<path class="st0" d="M47.5,30.3V19.7h-4.4c-0.4-1.3-0.9-2.5-1.5-3.7l3.1-3.1l-7.6-7.6L34,8.4c-1.2-0.6-2.4-1.1-3.7-1.5V2.5H19.7v4.4
	c-1.3,0.4-2.5,0.9-3.7,1.5l-3.1-3.1l-7.6,7.6L8.4,16c-0.6,1.2-1.1,2.4-1.5,3.7H2.5v10.7h4.4c0.4,1.3,0.9,2.5,1.5,3.7l-3.1,3.1
	l7.6,7.6l3.1-3.1c1.2,0.6,2.4,1.1,3.7,1.5v4.4h10.7v-4.4c1.3-0.4,2.5-0.9,3.7-1.5l3.1,3.1l7.6-7.6L41.6,34c0.6-1.2,1.1-2.4,1.5-3.7
	H47.5z M25,34c-5,0-9-4-9-9s4-9,9-9c5,0,9,4,9,9S30,34,25,34z"/>
</svg>
