<?xml version="1.0" encoding="utf-8"?>
<!-- Generator: Adobe Illustrator 21.1.0, SVG Export Plug-In . SVG Version: 6.00 Build 0)  -->
<svg version="1.1" id="Warstwa_1" xmlns="http://www.w3.org/2000/svg" xmlns:xlink="http://www.w3.org/1999/xlink" x="0px" y="0px"
	 viewBox="0 0 50 50" style="enable-background:new 0 0 50 50;" xml:space="preserve">
<style type="text/css">
	.st0{fill:#FFFFFF;}
</style>
<g>
	<path class="st0" d="M7,3.8c-1-1-2.7-1-3.7,0c-1,1-1,2.7,0,3.7L20.7,25L3.3,42.5c-1,1-1,2.7,0,3.7C3.8,46.7,4.5,47,5.1,47
		s1.3-0.3,1.9-0.8L28.2,25L7,3.8z"/>
	<path class="st0" d="M26.3,3.8c-1-1-2.7-1-3.7,0c-1,1-1,2.7,0,3.7L40,25L22.6,42.5c-1,1-1,2.7,0,3.7c0.5,0.5,1.2,0.8,1.9,0.8
		c0.7,0,1.3-0.3,1.9-0.8L47.5,25L26.3,3.8z"/>
</g>
</svg>
