<?xml version="1.0" encoding="utf-8"?>
<!-- Generator: Adobe Illustrator 21.1.0, SVG Export Plug-In . SVG Version: 6.00 Build 0)  -->
<svg version="1.1" id="Warstwa_1" xmlns="http://www.w3.org/2000/svg" xmlns:xlink="http://www.w3.org/1999/xlink" x="0px" y="0px"
	 viewBox="0 0 50 50" style="enable-background:new 0 0 50 50;" xml:space="preserve">
<style type="text/css">
	.st0{fill:#FFFFFF;}
</style>
<g>
	<path class="st0" d="M25,47.5C12.6,47.5,2.5,37.4,2.5,25c0-4.3,1.2-8.5,3.6-12.2c0.3-0.5,1-0.7,1.5-0.3c0.5,0.3,0.7,1,0.3,1.5
		c-2.1,3.3-3.2,7.1-3.2,11c0,11.2,9.1,20.3,20.3,20.3c11.2,0,20.3-9.1,20.3-20.3c0-11.2-9.1-20.3-20.3-20.3c-4,0-7.8,1.2-11.2,3.3
		c-0.5,0.3-1.2,0.2-1.5-0.3c-0.3-0.5-0.2-1.2,0.3-1.5c3.7-2.4,7.9-3.7,12.4-3.7c12.4,0,22.5,10.1,22.5,22.5
		C47.5,37.4,37.4,47.5,25,47.5z"/>
	<path class="st0" d="M36,23.8L20.9,15c-0.7-0.4-1.6,0.1-1.6,0.9l0,17.5c0,0.8,0.9,1.4,1.6,0.9L36,25.7C36.7,25.3,36.7,24.2,36,23.8
		z"/>
</g>
</svg>
