<?xml version="1.0" encoding="utf-8"?>
<!-- Generator: Adobe Illustrator 21.1.0, SVG Export Plug-In . SVG Version: 6.00 Build 0)  -->
<svg version="1.1" id="Warstwa_1" xmlns="http://www.w3.org/2000/svg" xmlns:xlink="http://www.w3.org/1999/xlink" x="0px" y="0px"
	 viewBox="0 0 50 50" style="enable-background:new 0 0 50 50;" xml:space="preserve">
<style type="text/css">
	.st0{fill:#FFFFFF;}
</style>
<g>
	<path class="st0" d="M43,3.8c1-1,2.7-1,3.7,0c1,1,1,2.7,0,3.7L29.3,25l17.5,17.5c1,1,1,2.7,0,3.7c-0.5,0.5-1.2,0.8-1.9,0.8
		s-1.3-0.3-1.9-0.8L21.8,25L43,3.8z"/>
	<path class="st0" d="M23.7,3.8c1-1,2.7-1,3.7,0c1,1,1,2.7,0,3.7L10,25l17.5,17.5c1,1,1,2.7,0,3.7c-0.5,0.5-1.2,0.8-1.9,0.8
		c-0.7,0-1.3-0.3-1.9-0.8L2.5,25L23.7,3.8z"/>
</g>
</svg>
