<?xml version="1.0" encoding="utf-8"?>
<!-- Generator: Adobe Illustrator 21.1.0, SVG Export Plug-In . SVG Version: 6.00 Build 0)  -->
<svg version="1.1" id="Warstwa_1" xmlns="http://www.w3.org/2000/svg" xmlns:xlink="http://www.w3.org/1999/xlink" x="0px" y="0px"
	 viewBox="0 0 50 50" style="enable-background:new 0 0 50 50;" xml:space="preserve">
<style type="text/css">
	.st0{fill:#FFFFFF;}
</style>
<g>
	<path class="st0" d="M25,2.5c-4.4,0-8.7,1.3-12.4,3.7c-0.5,0.3-0.6,1-0.3,1.5c0.3,0.5,1,0.6,1.5,0.3C17.2,5.8,21,4.7,25,4.7
		c11.2,0,20.3,9.1,20.3,20.3S36.2,45.3,25,45.3S4.7,36.2,4.7,25c0-3.9,1.1-7.7,3.2-11c0.3-0.5,0.2-1.2-0.3-1.5
		c-0.5-0.3-1.2-0.2-1.5,0.3C3.7,16.5,2.5,20.7,2.5,25c0,12.4,10.1,22.5,22.5,22.5S47.5,37.4,47.5,25C47.5,12.6,37.4,2.5,25,2.5z"/>
	<path class="st0" d="M11.6,27.2h11.9l0,11.9c0,0.8,0.7,1.5,1.5,1.5c0.8,0,1.5-0.7,1.5-1.5l0-11.9h11.9c0.8,0,1.5-0.7,1.5-1.5
		s-0.7-1.5-1.5-1.5H26.5l0-11.9c0-0.8-0.7-1.5-1.5-1.5s-1.5,0.7-1.5,1.5l0,11.9H11.6c-0.8,0-1.5,0.7-1.5,1.5S10.7,27.2,11.6,27.2z"
		/>
</g>
</svg>
