<?xml version="1.0" encoding="utf-8"?>
<!-- Generator: Adobe Illustrator 21.1.0, SVG Export Plug-In . SVG Version: 6.00 Build 0)  -->
<svg version="1.1" id="Warstwa_1" xmlns="http://www.w3.org/2000/svg" xmlns:xlink="http://www.w3.org/1999/xlink" x="0px" y="0px"
	 viewBox="0 0 50 50" style="enable-background:new 0 0 50 50;" xml:space="preserve">
<style type="text/css">
	.st0{fill:#FFFFFF;}
</style>
<g>
	<path class="st0" d="M25,2.5c-4.4,0-8.7,1.3-12.4,3.7c-0.5,0.3-0.6,1-0.3,1.5c0.3,0.5,1,0.6,1.5,0.3C17.2,5.8,21,4.7,25,4.7
		c11.2,0,20.3,9.1,20.3,20.3c0,11.2-9.1,20.3-20.3,20.3C13.8,45.3,4.7,36.2,4.7,25c0-3.9,1.1-7.7,3.2-11c0.3-0.5,0.2-1.2-0.3-1.5
		c-0.5-0.3-1.2-0.2-1.5,0.3C3.7,16.5,2.5,20.7,2.5,25c0,12.4,10.1,22.5,22.5,22.5c12.4,0,22.5-10.1,22.5-22.5
		C47.5,12.6,37.4,2.5,25,2.5z"/>
	<path class="st0" d="M30.4,38.2c0.3,0,0.6-0.1,0.8-0.3l4.2-3.7c0.3-0.2,0.4-0.6,0.4-0.9V14.5c0-0.7-0.6-1.3-1.3-1.3H15.4
		c-0.7,0-1.3,0.6-1.3,1.3V37c0,0.7,0.6,1.3,1.3,1.3H30.4z M16.7,15.7h16.7v16.8h-3.3v3.1l-0.1,0.1H16.7V15.7z"/>
</g>
</svg>
