<?xml version="1.0" encoding="utf-8"?>
<!-- Generator: Adobe Illustrator 21.1.0, SVG Export Plug-In . SVG Version: 6.00 Build 0)  -->
<svg version="1.1" id="Warstwa_1" xmlns="http://www.w3.org/2000/svg" xmlns:xlink="http://www.w3.org/1999/xlink" x="0px" y="0px"
	 viewBox="0 0 50 50" style="enable-background:new 0 0 50 50;" xml:space="preserve">
<style type="text/css">
	.st0{fill:#FFFFFF;}
</style>
<g>
	<path class="st0" d="M11,10.2c-0.3-0.3-0.7-0.3-1,0c-3.7,3.7-3.7,9.7,0,13.4c0.1,0.1,0.3,0.2,0.5,0.2s0.4-0.1,0.5-0.2
		c0.3-0.3,0.3-0.7,0-1c-3.1-3.1-3.1-8.2,0-11.4C11.3,10.9,11.3,10.5,11,10.2z"/>
	<path class="st0" d="M46.9,44.2L35.4,32.7c-0.6-0.6-1.5-0.7-2.2-0.4l-5.7-5.7c2.4-2.7,3.8-6.1,3.8-9.7c0-3.9-1.5-7.5-4.2-10.3
		c-2.7-2.7-6.4-4.2-10.3-4.2c-3.9,0-7.5,1.5-10.3,4.2c-2,2-3.4,4.5-3.9,7.3c-0.1,0.4,0.2,0.8,0.5,0.8c0.4,0.1,0.8-0.2,0.8-0.5
		c0.5-2.5,1.8-4.8,3.6-6.6c2.5-2.5,5.8-3.8,9.3-3.8c3.5,0,6.8,1.4,9.3,3.8c2.5,2.5,3.8,5.8,3.8,9.3c0,3.5-1.4,6.8-3.8,9.3
		c-2.5,2.5-5.8,3.8-9.3,3.8c-3.5,0-6.8-1.4-9.3-3.8c-1.8-1.8-3-4-3.5-6.5c-0.1-0.4-0.5-0.6-0.8-0.5c-0.4,0.1-0.6,0.5-0.5,0.8
		c0.6,2.7,1.9,5.2,3.9,7.2c2.7,2.7,6.4,4.2,10.3,4.2c3.6,0,7.1-1.3,9.7-3.8l5.7,5.7c-0.3,0.7-0.2,1.6,0.4,2.2l11.5,11.5
		c0.4,0.4,0.9,0.6,1.4,0.6s1-0.2,1.4-0.6C47.7,46.3,47.7,45,46.9,44.2z"/>
</g>
</svg>
