<?xml version="1.0" encoding="utf-8"?>
<!-- Generator: Adobe Illustrator 21.1.0, SVG Export Plug-In . SVG Version: 6.00 Build 0)  -->
<svg version="1.1" id="Warstwa_1" xmlns="http://www.w3.org/2000/svg" xmlns:xlink="http://www.w3.org/1999/xlink" x="0px" y="0px"
	 viewBox="0 0 50 50" style="enable-background:new 0 0 50 50;" xml:space="preserve">
<style type="text/css">
	.st0{fill:#FFFFFF;}
</style>
<g>
	<path class="st0" d="M47.8,45.7H2.2c-0.4,0-0.7-0.2-0.9-0.5c-0.2-0.3-0.2-0.7,0-1L24.1,4.8c0.2-0.3,0.5-0.5,0.9-0.5
		s0.7,0.2,0.9,0.5l22.8,39.5c0.2,0.3,0.2,0.7,0,1C48.5,45.5,48.2,45.7,47.8,45.7z M3.9,43.8h42.2L25,7.2L3.9,43.8z"/>
	<g>
		<path class="st0" d="M26.9,37.6c0,1-0.9,1.9-1.9,1.9c-1.1,0-1.9-0.9-1.9-1.9c0-1.1,0.8-1.9,1.9-1.9C26.1,35.7,26.9,36.6,26.9,37.6
			z M26.4,32.5c0,0.8-0.8,1.1-1.4,1.1c-0.7,0-1.4-0.3-1.4-1.1c0-3.8-0.4-8.8-0.4-12.5c0-1,0.8-1.6,1.8-1.6c1,0,1.8,0.6,1.8,1.6
			C26.8,23.8,26.4,28.8,26.4,32.5z"/>
	</g>
</g>
</svg>
